Simulation/top_module_16_bit_processor.vcd
$date
	Tue Jun  9 19:10:36 2020
$end
$version
	Icarus Verilog
$end
$timescale
	10ns
$end
$scope module top_module_processor_tb $end
$var reg 1 ! Rst $end
$scope module m $end
$var wire 1 ! Rst $end
$var wire 1 " st_reg_ld $end
$var wire 1 # reg_wr $end
$var wire 5 $ reg_addr2 [4:0] $end
$var wire 5 % reg_addr1 [4:0] $end
$var wire 1 & pc_addr_sel $end
$var wire 6 ' opcode [5:0] $end
$var wire 1 ( mem_wr $end
$var wire 5 ) mem_addr [4:0] $end
$var wire 16 * inst [15:0] $end
$var wire 5 + imd_operand [4:0] $end
$var wire 16 , imd_addr [15:0] $end
$var wire 5 - flags_out [4:0] $end
$var wire 1 . clk $end
$var wire 1 / PcorR $end
$var wire 1 0 Pc_Rst $end
$var wire 1 1 Pc_Ld $end
$var wire 1 2 IorR $end
$var wire 2 3 Din_Sel [1:0] $end
$scope module clk_obj $end
$var reg 1 . clk $end
$upscope $end
$scope module cu_obj $end
$var wire 1 ! Rst $end
$var wire 1 . clk $end
$var wire 16 4 inst [15:0] $end
$var wire 5 5 flags_in [4:0] $end
$var reg 1 6 B_Arth $end
$var reg 1 7 B_Type $end
$var reg 1 8 B_Type_BRC $end
$var reg 1 9 B_Type_BRN $end
$var reg 1 : B_Type_BRV $end
$var reg 1 ; B_Type_BRZ $end
$var reg 1 < B_Type_JMP $end
$var reg 5 = DestA [4:0] $end
$var reg 2 > Din_Sel [1:0] $end
$var reg 1 ? I_Type $end
$var reg 1 @ Imd_Arth $end
$var reg 1 2 IorR $end
$var reg 1 A M_Type $end
$var reg 1 B M_Type_LD $end
$var reg 1 1 Pc_Ld $end
$var reg 1 0 Pc_Rst $end
$var reg 1 / PcorR $end
$var reg 1 C R_Type $end
$var reg 1 D SR_Type $end
$var reg 5 E SrcA [4:0] $end
$var reg 16 F imd_addr [15:0] $end
$var reg 5 G imd_operand [4:0] $end
$var reg 5 H mem_addr [4:0] $end
$var reg 1 ( mem_wr $end
$var reg 6 I opcode [5:0] $end
$var reg 1 & pc_addr_sel $end
$var reg 5 J reg_addr1 [4:0] $end
$var reg 5 K reg_addr2 [4:0] $end
$var reg 1 # reg_wr $end
$var reg 1 " st_reg_ld $end
$var reg 5 L state [4:0] $end
$upscope $end
$scope module dp_unit_obj $end
$var wire 2 M Din_Sel [1:0] $end
$var wire 1 2 IorR $end
$var wire 1 1 Pc_Ld $end
$var wire 1 0 Pc_Rst $end
$var wire 1 / PcorR $end
$var wire 1 ! Rst $end
$var wire 1 . clk $end
$var wire 16 N imd_addr [15:0] $end
$var wire 5 O imd_operand [4:0] $end
$var wire 5 P mem_addr [4:0] $end
$var wire 1 ( mem_wr $end
$var wire 6 Q opcode [5:0] $end
$var wire 1 & pc_addr_sel $end
$var wire 5 R reg_addr1 [4:0] $end
$var wire 5 S reg_addr2 [4:0] $end
$var wire 1 # reg_wr $end
$var wire 1 " st_reg_ld $end
$var wire 16 T temp_out [15:0] $end
$var wire 16 U se_op [15:0] $end
$var wire 16 V result [15:0] $end
$var wire 16 W reg_out_2 [15:0] $end
$var wire 16 X reg_out_1 [15:0] $end
$var wire 16 Y reg_d_in [15:0] $end
$var wire 16 Z pc_addr [15:0] $end
$var wire 16 [ operand2 [15:0] $end
$var wire 16 \ operand1 [15:0] $end
$var wire 16 ] mem_d_out [15:0] $end
$var wire 16 ^ inst_addr [15:0] $end
$var wire 16 _ inst [15:0] $end
$var wire 5 ` flags_out [4:0] $end
$var wire 5 a flags_in [4:0] $end
$scope module alu_obj $end
$var wire 6 b opcode [5:0] $end
$var wire 16 c operand2 [15:0] $end
$var wire 16 d operand1 [15:0] $end
$var reg 5 e flags [4:0] $end
$var reg 16 f result [15:0] $end
$var reg 16 g temp [15:0] $end
$upscope $end
$scope module dm_obj $end
$var wire 1 . clk $end
$var wire 5 h mem_addr [4:0] $end
$var wire 1 ( mem_wr $end
$var wire 16 i mem_d_in [15:0] $end
$var reg 16 j mem_d_out [15:0] $end
$upscope $end
$scope module instmem_obj $end
$var wire 1 . clk $end
$var wire 16 k inst_addr [15:0] $end
$var reg 16 l inst [15:0] $end
$upscope $end
$scope module mux_obj1 $end
$var wire 2 m Sel [1:0] $end
$var wire 16 n val1 [15:0] $end
$var wire 16 o val2 [15:0] $end
$var wire 16 p val3 [15:0] $end
$var wire 16 q mux_out [15:0] $end
$upscope $end
$scope module mux_obj2 $end
$var wire 1 2 Sel $end
$var wire 16 r val2 [15:0] $end
$var wire 16 s val1 [15:0] $end
$var wire 16 t mux_out [15:0] $end
$upscope $end
$scope module mux_obj3 $end
$var wire 1 / Sel $end
$var wire 16 u val2 [15:0] $end
$var wire 16 v val1 [15:0] $end
$var wire 16 w mux_out [15:0] $end
$upscope $end
$scope module mux_obj4 $end
$var wire 1 & Sel $end
$var wire 16 x val1 [15:0] $end
$var wire 16 y val2 [15:0] $end
$var wire 16 z mux_out [15:0] $end
$upscope $end
$scope module pc_obj $end
$var wire 1 1 Pc_Ld $end
$var wire 1 0 Pc_Rst $end
$var wire 16 { Pc_addr_in [15:0] $end
$var wire 1 . clk $end
$var wire 16 | inst_addr [15:0] $end
$var reg 16 } addr [15:0] $end
$upscope $end
$scope module regfile_obj $end
$var wire 1 . clk $end
$var wire 5 ~ reg_addr1 [4:0] $end
$var wire 5 !" reg_addr2 [4:0] $end
$var wire 16 "" reg_din [15:0] $end
$var wire 1 # reg_wr $end
$var reg 16 #" reg_out_1 [15:0] $end
$var reg 16 $" reg_out_2 [15:0] $end
$upscope $end
$scope module se_obj $end
$var wire 5 %" d_in [4:0] $end
$var wire 16 &" d_out [15:0] $end
$upscope $end
$scope module st_reg_obj $end
$var wire 1 " clk $end
$var wire 5 '" flags_in [4:0] $end
$var wire 5 (" flags_out [4:0] $end
$var wire 1 ! ld $end
$var wire 1 . rst $end
$var reg 5 )" st_reg [4:0] $end
$upscope $end
$scope module ts_obj $end
$var wire 1 . clk $end
$var wire 1 *" comp_reg_wr $end
$var wire 1 # reg_wr $end
$var wire 16 +" temp_in [15:0] $end
$var wire 16 ," temp_out [15:0] $end
$var reg 16 -" temp_register [15:0] $end
$upscope $end
$upscope $end
$upscope $end
$upscope $end
$enddefinitions $end
#0
$dumpvars
b0 -"
b0 ,"
bx +"
x*"
b0 )"
b0 ("
b0 '"
bx &"
bx %"
b0 $"
b0 #"
bx ""
bx !"
bx ~
b0 }
b0 |
bx {
bx z
bx y
bx x
bx w
b0 v
b0 u
bx t
bx s
b0 r
bx q
b0 p
bx o
bz n
bx m
bz l
b0 k
bz j
b0 i
bx h
bx g
bx f
b0 e
bx d
bx c
bx b
b0 a
b0 `
bz _
b0 ^
bz ]
bx \
bx [
bx Z
bx Y
b0 X
b0 W
bx V
bx U
b0 T
bx S
bx R
bx Q
bx P
bx O
bx N
bx M
b0 L
bx K
bx J
bx I
bx H
bx G
bx F
bx E
xD
xC
xB
xA
x@
x?
bx >
bx =
x<
x;
x:
x9
x8
x7
x6
b0 5
bz 4
bx 3
x2
x1
00
x/
0.
b0 -
bx ,
bx +
bz *
bx )
x(
bx '
x&
bx %
bx $
x#
x"
0!
$end
#100
1.
#200
b10100000000001 *
b10100000000001 4
b10100000000001 _
b10100000000001 l
0.
#300
1!
1.
#400
0.
#500
b1 L
1.
#600
0.
#700
b10 L
10
1.
#800
0.
#900
b1 U
b1 s
b1 &"
0<
0;
09
08
0:
0&
07
0D
1@
0?
16
1C
0A
0B
b1 ,
b1 F
b1 N
b1 y
b1 +
b1 G
b1 O
b1 %"
b0 =
b1 E
b1010 '
b1010 I
b1010 Q
b1010 b
b1111 L
1.
#1000
0.
#1100
b101 L
1.
#1200
0.
#1300
b0 Z
b0 z
b0 {
b1000 a
b1000 e
b1000 '"
b0 V
b0 f
b0 o
b0 x
b0 g
b0 \
b0 d
b0 w
b0 [
b0 c
b0 t
b0 +"
1*"
0/
12
0#
b1 $
b1 K
b1 S
b1 !"
b0 %
b0 J
b0 R
b0 ~
b110 L
1.
#1400
bx g
bx [
bx c
bx t
bx +"
b1000 a
b1000 e
b1000 '"
bx \
bx d
bx w
bx W
bx r
bx $"
bx X
bx i
bx v
bx #"
0.
#1500
b1000 -
b1000 5
b1000 `
b1000 ("
b1000 )"
0*"
b0 Y
b0 q
b0 ""
b10000 L
1"
1#
b1 3
b1 >
b1 M
b1 m
1.
#1600
b0 -
b0 5
b0 `
b0 ("
b0 )"
0.
#1700
1*"
0"
0#
b1100 L
1.
#1800
b1000 a
b1000 e
b1000 '"
b0 \
b0 d
b0 w
b0 X
b0 i
b0 v
b0 #"
bx T
bx p
bx ,"
bx -"
0.
#1900
b1 Y
b1 q
b1 ""
b1 Z
b1 z
b1 {
b1 V
b1 f
b1 o
b1 x
b0 a
b0 e
b0 '"
b1101 L
b11101 '
b11101 I
b11101 Q
b11101 b
1/
1.
#2000
0.
#2100
11
b1110 L
1.
#2200
0.
#2300
b1 L
0/
01
b1 ^
b1 k
b1 u
b1 |
b1 }
1.
#2400
b100001 *
b100001 4
b100001 _
b100001 l
0.
#2500
b10 L
1.
#2600
0.
#2700
b1111 L
1B
1A
1@
16
0C
b100001 ,
b100001 F
b100001 N
b100001 y
b1 =
b0 '
b0 I
b0 Q
b0 b
1.
#2800
0.
#2900
b11 L
1.
#3000
0.
#3100
0*"
bz Y
bz q
bz ""
b1100 L
1#
b0 3
b0 >
b0 M
b0 m
b1 %
b1 J
b1 R
b1 ~
b1 )
b1 H
b1 P
b1 h
0(
1.
#3200
0.
#3300
b10 Z
b10 z
b10 {
b10 V
b10 f
b10 o
b10 x
b1 \
b1 d
b1 w
b101 Y
b101 q
b101 ""
b11101 '
b11101 I
b11101 Q
b11101 b
1/
b1101 L
b101 ]
b101 j
b101 n
1.
#3400
0.
#3500
b1110 L
11
1.
#3600
0.
#3700
b1 Z
b1 z
b1 {
b1 V
b1 f
b1 o
b1 x
b0 \
b0 d
b0 w
0/
01
b1 L
b10 ^
b10 k
b10 u
b10 |
b10 }
1.
#3800
b0 *
b0 4
b0 _
b0 l
0.
#3900
b10 L
1.
#4000
0.
#4100
b0 U
b0 s
b0 &"
1@
16
1A
1B
b0 ,
b0 F
b0 N
b0 y
b0 +
b0 G
b0 O
b0 %"
b0 =
b0 E
b0 '
b0 I
b0 Q
b0 b
b1111 L
1.
#4200
0.
#4300
b11 L
1.
#4400
0.
#4500
b0 %
b0 J
b0 R
b0 ~
b0 )
b0 H
b0 P
b0 h
b1100 L
1.
#4600
0.
#4700
b11 Z
b11 z
b11 {
b11 V
b11 f
b11 o
b11 x
b10 \
b10 d
b10 w
b110 Y
b110 q
b110 ""
b1101 L
b11101 '
b11101 I
b11101 Q
b11101 b
1/
b110 ]
b110 j
b110 n
1.
#4800
0.
#4900
11
b1110 L
1.
#5000
0.
#5100
b1 Z
b1 z
b1 {
b1 V
b1 f
b1 o
b1 x
b0 \
b0 d
b0 w
b1 L
0/
01
b11 ^
b11 k
b11 u
b11 |
b11 }
1.
#5200
b1000010000000101 *
b1000010000000101 4
b1000010000000101 _
b1000010000000101 l
0.
#5300
b10 L
1.
#5400
0.
#5500
b101 U
b101 s
b101 &"
b1111 L
1;
17
1@
16
0A
0B
b101 ,
b101 F
b101 N
b101 y
b101 +
b101 G
b101 O
b101 %"
b101 E
b100001 '
b100001 I
b100001 Q
b100001 b
1.
#5600
0.
#5700
b1100 L
1.
#5800
0.
#5900
b100 Z
b100 z
b100 {
b100 V
b100 f
b100 o
b100 x
b11 \
b11 d
b11 w
b1101 L
b11101 '
b11101 I
b11101 Q
b11101 b
1/
1.
#6000
0.
#6100
11
b1110 L
1.
#6200
0.
#6300
b1 Z
b1 z
b1 {
b1 V
b1 f
b1 o
b1 x
b0 \
b0 d
b0 w
b1 L
0/
01
b100 ^
b100 k
b100 u
b100 |
b100 }
1.
#6400
b100000000000101 *
b100000000000101 4
b100000000000101 _
b100000000000101 l
0.
#6500
b10 L
1.
#6600
0.
#6700
b1111 L
1?
0;
07
0@
16
b10000 '
b10000 I
b10000 Q
b10000 b
1.
#6800
0.
#6900
b1010 L
1.
#7000
0.
#7100
b101 [
b101 c
b101 t
b101 +"
1*"
b10001 L
0#
02
1.
#7200
b110 \
b110 d
b110 w
b101 T
b101 p
b101 ,"
b101 -"
b101 W
b101 r
b101 $"
b110 X
b110 i
b110 v
b110 #"
0.
#7300
b1000 L
1.
#7400
0.
#7500
0*"
b10000 L
1#
b101 Y
b101 q
b101 ""
b10 3
b10 >
b10 M
b10 m
1.
#7600
0.
#7700
1*"
0#
b1100 L
1.
#7800
b101 \
b101 d
b101 w
b101 X
b101 i
b101 v
b101 #"
0.
#7900
b101 Z
b101 z
b101 {
b100 \
b100 d
b100 w
b101 V
b101 f
b101 o
b101 x
b1101 L
b11101 '
b11101 I
b11101 Q
b11101 b
1/
1.
#8000
0.
#8100
11
b1110 L
1.
#8200
0.
#8300
b110 Z
b110 z
b110 {
b110 V
b110 f
b110 o
b110 x
b101 \
b101 d
b101 w
b1 L
0/
01
b101 ^
b101 k
b101 u
b101 |
b101 }
1.
#8400
b100000000000110 *
b100000000000110 4
b100000000000110 _
b100000000000110 l
0.
#8500
b10 L
1.
#8600
0.
#8700
b110 [
b110 c
b110 t
b110 +"
b110 U
b110 s
b110 &"
b1111 L
1?
16
b110 ,
b110 F
b110 N
b110 y
b110 +
b110 G
b110 O
b110 %"
b110 E
b10000 '
b10000 I
b10000 Q
b10000 b
1.
#8800
b110 Y
b110 q
b110 ""
b110 T
b110 p
b110 ,"
b110 -"
0.
#8900
b1010 L
1.
#9000
0.
#9100
b10001 L
1.
#9200
0.
#9300
b1000 L
1.
#9400
0.
#9500
0*"
b10000 L
1#
1.
#9600
0.
#9700
1*"
0#
b1100 L
1.
#9800
b110 \
b110 d
b110 w
b110 X
b110 i
b110 v
b110 #"
0.
#9900
b110 Z
b110 z
b110 {
b101 \
b101 d
b101 w
b110 V
b110 f
b110 o
b110 x
b1101 L
b11101 '
b11101 I
b11101 Q
b11101 b
1/
1.
#10000
0.
#10100
11
b1110 L
1.
#10200
0.
#10300
b111 Z
b111 z
b111 {
b111 V
b111 f
b111 o
b111 x
b110 \
b110 d
b110 w
b1 L
0/
01
b110 ^
b110 k
b110 u
b110 |
b110 }
1.
#10400
b10001000000 *
b10001000000 4
b10001000000 _
b10001000000 l
0.
#10500
b10 L
1.
#10600
0.
#10700
b0 [
b0 c
b0 t
b0 +"
b0 U
b0 s
b0 &"
b1111 L
1@
1A
0?
16
b1000000 ,
b1000000 F
b1000000 N
b1000000 y
b0 +
b0 G
b0 O
b0 %"
b10 =
b0 E
b1 '
b1 I
b1 Q
b1 b
1.
#10800
b0 Y
b0 q
b0 ""
b0 T
b0 p
b0 ,"
b0 -"
0.
#10900
b100 L
1.
#11000
0.
#11100
b1100 L
b10 )
b10 H
b10 P
b10 h
1(
1.
#11200
0.
#11300
b11101 '
b11101 I
b11101 Q
b11101 b
1/
b1101 L
1.
#11400
0.
#11500
b1110 L
11
1.
#11600
0.
#11700
0/
01
b1 L
b111 ^
b111 k
b111 u
b111 |
b111 }
1.
#11800
bz *
bz 4
bz _
bz l
0.
#11900
b10 L
1.
#12000
0.
#12100
bxzzzzz [
bxzzzzz c
bxzzzzz t
bxzzzzz +"
bxzzzzz U
bxzzzzz s
bxzzzzz &"
0@
06
0A
b0zzzzzzzzzz ,
b0zzzzzzzzzz F
b0zzzzzzzzzz N
b0zzzzzzzzzz y
bz +
bz G
bz O
bz %"
bz =
bz E
bz '
bz I
bz Q
bz b
b1111 L
1.
#12200
bxzzzzz Y
bxzzzzz q
bxzzzzz ""
bxzzzzz T
bxzzzzz p
bxzzzzz ,"
bxzzzzz -"
0.
